{

                "ImageId": "ami-bc8201aa", 
                "BlockDeviceMappings": [
                    {
                        "DeviceName": "/dev/xvda", 
                        "Ebs": {
                            "DeleteOnTermination": true
                        }
                    }
                ], 
                "CreditSpecification": {
                    "CpuCredits": "unlimited"
                }, 
                "EbsOptimized": false, 
                "IamInstanceProfile": {
                    "Arn": "arn:aws:iam::655772981054:instance-profile/Scripter-Backend-Deploy"
                }, 
                "InstanceType": "t2.medium", 
                "NetworkInterfaces": [
                    {
                        "AssociatePublicIpAddress": true
                    }
                ]
             
       
   
}
