{
                "Placement": {
                    "Tenancy": "default", 
                    "GroupName": "", 
                    "AvailabilityZone": "us-east-1c"
                }, 
                "ImageId": "ami-bc8201aa", 
                "BlockDeviceMappings": [
                    {
                        "DeviceName": "/dev/xvda", 
                        "Ebs": {
                            "DeleteOnTermination": true
                        }
                    }
                ], 
                "CreditSpecification": {
                    "CpuCredits": "unlimited"
                }, 
                "EbsOptimized": false, 
                "IamInstanceProfile": {
                    "Arn": "arn:aws:iam::655772981054:instance-profile/Scripter-Backend-Deploy"
                }, 
                "InstanceType": "t2.medium", 
                "NetworkInterfaces": [
                    {
                        "SubnetId": "subnet-b44de0ff", 
                        "DeviceIndex": 0, 
                        "Groups": [
                            "sg-4687f234"
                        ], 
                        "AssociatePublicIpAddress": true
                    }
                ]
             
       
   
}
